First_Name,Middle_Name,Last_Name,Email,Birthdate,Image,Password
louis,baldado,christ,asd2asd@asd.com,"Aug 31, 2011",pic-louis-christ.jpg,05f1d85fa9c80d0d09f3ad9b6e2dc21c
popo,popo,popo,asd!@asd.com,"Jul 13, 1997",pic-popo-popo.jpg,698d51a19d8a121ce581499d7b701668
optimus,autobot,prime,optimus@gmail.com,"Apr 04, 1980",pic-optimus-prime.png,202cb962ac59075b964b07152d234b70
kkk,kkk,kkk,kkk@kkasd.com,"Apr 04, 2020",pic-kkk-kkk.jpg,cb42e130d1471239a27fca6228094f0e
asd,asd,asd,asd@asd,"Mar 11, 2020",pic-asd-asd.jpg,7815696ecbf1c96e6894b779456d330e
popo,popo,popo,popo@popo,"Mar 02, 2020",pic-popo-popo.jpg,3b2285b348e95774cb556cb36e583106
